%YAML 1.1
%TAG !u! tag:unity3d.com,2011:
--- !u!114 &11400000
MonoBehaviour:
  m_ObjectHideFlags: 0
  m_PrefabParentObject: {fileID: 0}
  m_PrefabInternal: {fileID: 0}
  m_GameObject: {fileID: 0}
  m_Enabled: 1
  m_EditorHideFlags: 0
  m_Script: {fileID: 11500000, guid: 903f881c2aee4dd4ba83136c4b93b41c, type: 3}
  m_Name: Soldier_Skeleton4
  m_EditorClassIdentifier: 
  type: 0
  minionName: Soldier skeleton 4
  maxHealth: 100
  attack: 5
  attackSpeed: 1.5
  range: 1
  detectionRange: 8
  speed: 4.5
  model: {fileID: 1000013710199680, guid: 6e873339dfb289540971c1885f4494c2, type: 2}
