%YAML 1.1
%TAG !u! tag:unity3d.com,2011:
--- !u!114 &11400000
MonoBehaviour:
  m_ObjectHideFlags: 0
  m_PrefabParentObject: {fileID: 0}
  m_PrefabInternal: {fileID: 0}
  m_GameObject: {fileID: 0}
  m_Enabled: 1
  m_EditorHideFlags: 0
  m_Script: {fileID: 11500000, guid: 57da6af6299654748bd863bc3f592ea1, type: 3}
  m_Name: Skeleton_Team
  m_EditorClassIdentifier: 
  teamName: Skeletons
  characterList:
  - {fileID: 11400000, guid: c12d7a5ce3658ff458d39fdaa31080c6, type: 2}
  - {fileID: 11400000, guid: 4fcc471811048a54b9fe8afb13687990, type: 2}
  - {fileID: 11400000, guid: a2c2acb2eb2198042b67b7bfb3a437b8, type: 2}
  - {fileID: 11400000, guid: 14e3c40d8c72a6a4496b7ddbfcfe7d8f, type: 2}
